[
    {
        "from": {
            "type": "webform",
            "subfilter": { "id": 7 }
        },
        "to": {
            "type": "smart-process",
            "subfilter": { "id": 4, "entityTypeId": 173 }
        },
        "pairs": [
            {
                "source": "{{ fields.quest1 }}",
                "rawSource": [ "quest1" ],
                "target": "NAME",
                "extended": false
            }
        ]
    }
]